%TF.GenerationSoftware,KiCad,Pcbnew,(6.0.9)*%
%TF.CreationDate,2022-12-11T16:05:35+00:00*%
%TF.ProjectId,electro-sax,656c6563-7472-46f2-9d73-61782e6b6963,rev?*%
%TF.SameCoordinates,Original*%
%TF.FileFunction,Drillmap*%
%TF.FilePolarity,Positive*%
%FSLAX45Y45*%
G04 Gerber Fmt 4.5, Leading zero omitted, Abs format (unit mm)*
G04 Created by KiCad (PCBNEW (6.0.9)) date 2022-12-11 16:05:35*
%MOMM*%
%LPD*%
G01*
G04 APERTURE LIST*
%ADD10C,0.100000*%
%ADD11C,0.200000*%
G04 APERTURE END LIST*
D10*
X10000000Y-16500000D02*
X15000000Y-16500000D01*
X15000000Y-16500000D02*
X15000000Y-4000000D01*
X15000000Y-4000000D02*
X10000000Y-4000000D01*
X10000000Y-4000000D02*
X10000000Y-16500000D01*
D11*
X10252619Y-16815476D02*
X10252619Y-16615476D01*
X10300238Y-16615476D01*
X10328810Y-16625000D01*
X10347857Y-16644048D01*
X10357381Y-16663095D01*
X10366905Y-16701190D01*
X10366905Y-16729762D01*
X10357381Y-16767857D01*
X10347857Y-16786905D01*
X10328810Y-16805952D01*
X10300238Y-16815476D01*
X10252619Y-16815476D01*
X10452619Y-16815476D02*
X10452619Y-16682143D01*
X10452619Y-16720238D02*
X10462143Y-16701190D01*
X10471667Y-16691667D01*
X10490714Y-16682143D01*
X10509762Y-16682143D01*
X10576429Y-16815476D02*
X10576429Y-16682143D01*
X10576429Y-16615476D02*
X10566905Y-16625000D01*
X10576429Y-16634524D01*
X10585952Y-16625000D01*
X10576429Y-16615476D01*
X10576429Y-16634524D01*
X10700238Y-16815476D02*
X10681190Y-16805952D01*
X10671667Y-16786905D01*
X10671667Y-16615476D01*
X10805000Y-16815476D02*
X10785952Y-16805952D01*
X10776429Y-16786905D01*
X10776429Y-16615476D01*
X11033571Y-16815476D02*
X11033571Y-16615476D01*
X11100238Y-16758333D01*
X11166905Y-16615476D01*
X11166905Y-16815476D01*
X11347857Y-16815476D02*
X11347857Y-16710714D01*
X11338333Y-16691667D01*
X11319286Y-16682143D01*
X11281190Y-16682143D01*
X11262143Y-16691667D01*
X11347857Y-16805952D02*
X11328809Y-16815476D01*
X11281190Y-16815476D01*
X11262143Y-16805952D01*
X11252619Y-16786905D01*
X11252619Y-16767857D01*
X11262143Y-16748809D01*
X11281190Y-16739286D01*
X11328809Y-16739286D01*
X11347857Y-16729762D01*
X11443095Y-16682143D02*
X11443095Y-16882143D01*
X11443095Y-16691667D02*
X11462143Y-16682143D01*
X11500238Y-16682143D01*
X11519286Y-16691667D01*
X11528809Y-16701190D01*
X11538333Y-16720238D01*
X11538333Y-16777381D01*
X11528809Y-16796429D01*
X11519286Y-16805952D01*
X11500238Y-16815476D01*
X11462143Y-16815476D01*
X11443095Y-16805952D01*
X11624048Y-16796429D02*
X11633571Y-16805952D01*
X11624048Y-16815476D01*
X11614524Y-16805952D01*
X11624048Y-16796429D01*
X11624048Y-16815476D01*
X11624048Y-16691667D02*
X11633571Y-16701190D01*
X11624048Y-16710714D01*
X11614524Y-16701190D01*
X11624048Y-16691667D01*
X11624048Y-16710714D01*
M02*
