(kicad_sch (version 20211123) (generator eeschema)

  (uuid e63e39d7-6ac0-4ffd-8aa3-1841a4541b55)

  (paper "A4")

  (lib_symbols
    (symbol "Device:C" (pin_numbers hide) (pin_names (offset 0.254)) (in_bom yes) (on_board yes)
      (property "Reference" "C" (id 0) (at 0.635 2.54 0)
        (effects (font (size 1.27 1.27)) (justify left))
      )
      (property "Value" "C" (id 1) (at 0.635 -2.54 0)
        (effects (font (size 1.27 1.27)) (justify left))
      )
      (property "Footprint" "" (id 2) (at 0.9652 -3.81 0)
        (effects (font (size 1.27 1.27)) hide)
      )
      (property "Datasheet" "~" (id 3) (at 0 0 0)
        (effects (font (size 1.27 1.27)) hide)
      )
      (property "ki_keywords" "cap capacitor" (id 4) (at 0 0 0)
        (effects (font (size 1.27 1.27)) hide)
      )
      (property "ki_description" "Unpolarized capacitor" (id 5) (at 0 0 0)
        (effects (font (size 1.27 1.27)) hide)
      )
      (property "ki_fp_filters" "C_*" (id 6) (at 0 0 0)
        (effects (font (size 1.27 1.27)) hide)
      )
      (symbol "C_0_1"
        (polyline
          (pts
            (xy -2.032 -0.762)
            (xy 2.032 -0.762)
          )
          (stroke (width 0.508) (type default) (color 0 0 0 0))
          (fill (type none))
        )
        (polyline
          (pts
            (xy -2.032 0.762)
            (xy 2.032 0.762)
          )
          (stroke (width 0.508) (type default) (color 0 0 0 0))
          (fill (type none))
        )
      )
      (symbol "C_1_1"
        (pin passive line (at 0 3.81 270) (length 2.794)
          (name "~" (effects (font (size 1.27 1.27))))
          (number "1" (effects (font (size 1.27 1.27))))
        )
        (pin passive line (at 0 -3.81 90) (length 2.794)
          (name "~" (effects (font (size 1.27 1.27))))
          (number "2" (effects (font (size 1.27 1.27))))
        )
      )
    )
    (symbol "Device:R" (pin_numbers hide) (pin_names (offset 0)) (in_bom yes) (on_board yes)
      (property "Reference" "R" (id 0) (at 2.032 0 90)
        (effects (font (size 1.27 1.27)))
      )
      (property "Value" "R" (id 1) (at 0 0 90)
        (effects (font (size 1.27 1.27)))
      )
      (property "Footprint" "" (id 2) (at -1.778 0 90)
        (effects (font (size 1.27 1.27)) hide)
      )
      (property "Datasheet" "~" (id 3) (at 0 0 0)
        (effects (font (size 1.27 1.27)) hide)
      )
      (property "ki_keywords" "R res resistor" (id 4) (at 0 0 0)
        (effects (font (size 1.27 1.27)) hide)
      )
      (property "ki_description" "Resistor" (id 5) (at 0 0 0)
        (effects (font (size 1.27 1.27)) hide)
      )
      (property "ki_fp_filters" "R_*" (id 6) (at 0 0 0)
        (effects (font (size 1.27 1.27)) hide)
      )
      (symbol "R_0_1"
        (rectangle (start -1.016 -2.54) (end 1.016 2.54)
          (stroke (width 0.254) (type default) (color 0 0 0 0))
          (fill (type none))
        )
      )
      (symbol "R_1_1"
        (pin passive line (at 0 3.81 270) (length 1.27)
          (name "~" (effects (font (size 1.27 1.27))))
          (number "1" (effects (font (size 1.27 1.27))))
        )
        (pin passive line (at 0 -3.81 90) (length 1.27)
          (name "~" (effects (font (size 1.27 1.27))))
          (number "2" (effects (font (size 1.27 1.27))))
        )
      )
    )
    (symbol "Jumper:SolderJumper_2_Bridged" (pin_names (offset 0) hide) (in_bom yes) (on_board yes)
      (property "Reference" "JP" (id 0) (at 0 2.032 0)
        (effects (font (size 1.27 1.27)))
      )
      (property "Value" "SolderJumper_2_Bridged" (id 1) (at 0 -2.54 0)
        (effects (font (size 1.27 1.27)))
      )
      (property "Footprint" "" (id 2) (at 0 0 0)
        (effects (font (size 1.27 1.27)) hide)
      )
      (property "Datasheet" "~" (id 3) (at 0 0 0)
        (effects (font (size 1.27 1.27)) hide)
      )
      (property "ki_keywords" "solder jumper SPST" (id 4) (at 0 0 0)
        (effects (font (size 1.27 1.27)) hide)
      )
      (property "ki_description" "Solder Jumper, 2-pole, closed/bridged" (id 5) (at 0 0 0)
        (effects (font (size 1.27 1.27)) hide)
      )
      (property "ki_fp_filters" "SolderJumper*Bridged*" (id 6) (at 0 0 0)
        (effects (font (size 1.27 1.27)) hide)
      )
      (symbol "SolderJumper_2_Bridged_0_1"
        (rectangle (start -0.508 0.508) (end 0.508 -0.508)
          (stroke (width 0) (type default) (color 0 0 0 0))
          (fill (type outline))
        )
        (arc (start -0.254 1.016) (mid -1.27 0) (end -0.254 -1.016)
          (stroke (width 0) (type default) (color 0 0 0 0))
          (fill (type none))
        )
        (arc (start -0.254 1.016) (mid -1.27 0) (end -0.254 -1.016)
          (stroke (width 0) (type default) (color 0 0 0 0))
          (fill (type outline))
        )
        (polyline
          (pts
            (xy -0.254 1.016)
            (xy -0.254 -1.016)
          )
          (stroke (width 0) (type default) (color 0 0 0 0))
          (fill (type none))
        )
        (polyline
          (pts
            (xy 0.254 1.016)
            (xy 0.254 -1.016)
          )
          (stroke (width 0) (type default) (color 0 0 0 0))
          (fill (type none))
        )
        (arc (start 0.254 -1.016) (mid 1.27 0) (end 0.254 1.016)
          (stroke (width 0) (type default) (color 0 0 0 0))
          (fill (type none))
        )
        (arc (start 0.254 -1.016) (mid 1.27 0) (end 0.254 1.016)
          (stroke (width 0) (type default) (color 0 0 0 0))
          (fill (type outline))
        )
      )
      (symbol "SolderJumper_2_Bridged_1_1"
        (pin passive line (at -3.81 0 0) (length 2.54)
          (name "A" (effects (font (size 1.27 1.27))))
          (number "1" (effects (font (size 1.27 1.27))))
        )
        (pin passive line (at 3.81 0 180) (length 2.54)
          (name "B" (effects (font (size 1.27 1.27))))
          (number "2" (effects (font (size 1.27 1.27))))
        )
      )
    )
    (symbol "electro-sax-button-components:Matrix_Connector" (in_bom yes) (on_board yes)
      (property "Reference" "J" (id 0) (at 0 -10.16 0)
        (effects (font (size 1.27 1.27)))
      )
      (property "Value" "Matrix_Connector" (id 1) (at 0 -7.62 0)
        (effects (font (size 1.27 1.27)))
      )
      (property "Footprint" "" (id 2) (at 0 0 0)
        (effects (font (size 1.27 1.27)) hide)
      )
      (property "Datasheet" "" (id 3) (at 0 0 0)
        (effects (font (size 1.27 1.27)) hide)
      )
      (symbol "Matrix_Connector_0_1"
        (rectangle (start -6.35 5.08) (end 0 -5.08)
          (stroke (width 0.1524) (type default) (color 0 0 0 0))
          (fill (type background))
        )
      )
      (symbol "Matrix_Connector_1_1"
        (pin input line (at 5.08 2.54 180) (length 5.08)
          (name "GND" (effects (font (size 1.27 1.27))))
          (number "1" (effects (font (size 1.27 1.27))))
        )
        (pin input line (at 5.08 0 180) (length 5.08)
          (name "COL" (effects (font (size 1.27 1.27))))
          (number "2" (effects (font (size 1.27 1.27))))
        )
        (pin input line (at 5.08 -2.54 180) (length 5.08)
          (name "ROW" (effects (font (size 1.27 1.27))))
          (number "3" (effects (font (size 1.27 1.27))))
        )
      )
    )
    (symbol "electro-sax-button-components:Membrane_Switch" (in_bom yes) (on_board yes)
      (property "Reference" "S" (id 0) (at 0 -8.89 0)
        (effects (font (size 1.27 1.27)))
      )
      (property "Value" "Membrane_Switch" (id 1) (at 0 -6.35 0)
        (effects (font (size 1.27 1.27)))
      )
      (property "Footprint" "" (id 2) (at 0 0 0)
        (effects (font (size 1.27 1.27)) hide)
      )
      (property "Datasheet" "" (id 3) (at 0 0 0)
        (effects (font (size 1.27 1.27)) hide)
      )
      (symbol "Membrane_Switch_0_1"
        (polyline
          (pts
            (xy -3.81 5.08)
            (xy -3.81 1.27)
          )
          (stroke (width 0.1524) (type default) (color 0 0 0 0))
          (fill (type none))
        )
        (polyline
          (pts
            (xy -2.54 -1.27)
            (xy -2.54 3.81)
          )
          (stroke (width 0.1524) (type default) (color 0 0 0 0))
          (fill (type none))
        )
        (polyline
          (pts
            (xy -1.27 5.08)
            (xy -1.27 1.27)
          )
          (stroke (width 0.1524) (type default) (color 0 0 0 0))
          (fill (type none))
        )
        (polyline
          (pts
            (xy 0 -1.27)
            (xy 0 3.81)
          )
          (stroke (width 0.1524) (type default) (color 0 0 0 0))
          (fill (type none))
        )
        (polyline
          (pts
            (xy 1.27 5.08)
            (xy 1.27 1.27)
          )
          (stroke (width 0.1524) (type default) (color 0 0 0 0))
          (fill (type none))
        )
        (polyline
          (pts
            (xy 2.54 -1.27)
            (xy 2.54 3.81)
          )
          (stroke (width 0.1524) (type default) (color 0 0 0 0))
          (fill (type none))
        )
        (polyline
          (pts
            (xy 3.81 5.08)
            (xy 3.81 1.27)
          )
          (stroke (width 0.1524) (type default) (color 0 0 0 0))
          (fill (type none))
        )
        (polyline
          (pts
            (xy 5.08 -1.27)
            (xy 5.08 3.81)
          )
          (stroke (width 0.1524) (type default) (color 0 0 0 0))
          (fill (type none))
        )
        (polyline
          (pts
            (xy -6.35 -3.81)
            (xy -6.35 5.08)
            (xy 6.35 5.08)
            (xy 6.35 1.27)
          )
          (stroke (width 0.1524) (type default) (color 0 0 0 0))
          (fill (type none))
        )
        (polyline
          (pts
            (xy 6.35 -3.81)
            (xy 6.35 -1.27)
            (xy -5.08 -1.27)
            (xy -5.08 3.81)
          )
          (stroke (width 0.1524) (type default) (color 0 0 0 0))
          (fill (type none))
        )
      )
      (symbol "Membrane_Switch_1_1"
        (pin input line (at -11.43 -3.81 0) (length 5.08)
          (name "A" (effects (font (size 1.27 1.27))))
          (number "1" (effects (font (size 1.27 1.27))))
        )
        (pin input line (at 11.43 -3.81 180) (length 5.08)
          (name "B" (effects (font (size 1.27 1.27))))
          (number "2" (effects (font (size 1.27 1.27))))
        )
      )
    )
    (symbol "power:GND" (power) (pin_names (offset 0)) (in_bom yes) (on_board yes)
      (property "Reference" "#PWR" (id 0) (at 0 -6.35 0)
        (effects (font (size 1.27 1.27)) hide)
      )
      (property "Value" "GND" (id 1) (at 0 -3.81 0)
        (effects (font (size 1.27 1.27)))
      )
      (property "Footprint" "" (id 2) (at 0 0 0)
        (effects (font (size 1.27 1.27)) hide)
      )
      (property "Datasheet" "" (id 3) (at 0 0 0)
        (effects (font (size 1.27 1.27)) hide)
      )
      (property "ki_keywords" "power-flag" (id 4) (at 0 0 0)
        (effects (font (size 1.27 1.27)) hide)
      )
      (property "ki_description" "Power symbol creates a global label with name \"GND\" , ground" (id 5) (at 0 0 0)
        (effects (font (size 1.27 1.27)) hide)
      )
      (symbol "GND_0_1"
        (polyline
          (pts
            (xy 0 0)
            (xy 0 -1.27)
            (xy 1.27 -1.27)
            (xy 0 -2.54)
            (xy -1.27 -1.27)
            (xy 0 -1.27)
          )
          (stroke (width 0) (type default) (color 0 0 0 0))
          (fill (type none))
        )
      )
      (symbol "GND_1_1"
        (pin power_in line (at 0 0 270) (length 0) hide
          (name "GND" (effects (font (size 1.27 1.27))))
          (number "1" (effects (font (size 1.27 1.27))))
        )
      )
    )
    (symbol "pspice:DIODE" (pin_names (offset 1.016) hide) (in_bom yes) (on_board yes)
      (property "Reference" "D" (id 0) (at 0 3.81 0)
        (effects (font (size 1.27 1.27)))
      )
      (property "Value" "DIODE" (id 1) (at 0 -4.445 0)
        (effects (font (size 1.27 1.27)))
      )
      (property "Footprint" "" (id 2) (at 0 0 0)
        (effects (font (size 1.27 1.27)) hide)
      )
      (property "Datasheet" "~" (id 3) (at 0 0 0)
        (effects (font (size 1.27 1.27)) hide)
      )
      (property "ki_keywords" "simulation" (id 4) (at 0 0 0)
        (effects (font (size 1.27 1.27)) hide)
      )
      (property "ki_description" "Diode symbol for simulation only. Pin order incompatible with official kicad footprints" (id 5) (at 0 0 0)
        (effects (font (size 1.27 1.27)) hide)
      )
      (symbol "DIODE_0_1"
        (polyline
          (pts
            (xy 1.905 2.54)
            (xy 1.905 -2.54)
          )
          (stroke (width 0) (type default) (color 0 0 0 0))
          (fill (type none))
        )
        (polyline
          (pts
            (xy -1.905 2.54)
            (xy -1.905 -2.54)
            (xy 1.905 0)
          )
          (stroke (width 0) (type default) (color 0 0 0 0))
          (fill (type outline))
        )
      )
      (symbol "DIODE_1_1"
        (pin input line (at -5.08 0 0) (length 3.81)
          (name "K" (effects (font (size 1.27 1.27))))
          (number "1" (effects (font (size 1.27 1.27))))
        )
        (pin input line (at 5.08 0 180) (length 3.81)
          (name "A" (effects (font (size 1.27 1.27))))
          (number "2" (effects (font (size 1.27 1.27))))
        )
      )
    )
  )

  (junction (at 171.45 82.55) (diameter 0) (color 0 0 0 0)
    (uuid 48d6c45f-7762-4c42-a059-713a8a540a8e)
  )
  (junction (at 171.45 95.25) (diameter 0) (color 0 0 0 0)
    (uuid a7087104-f600-428e-aca4-3479102bcbbb)
  )

  (polyline (pts (xy 184.15 101.6) (xy 222.25 101.6))
    (stroke (width 0) (type default) (color 0 0 0 0))
    (uuid 046aab5e-6009-4b2e-9cba-d64e2266d3bb)
  )
  (polyline (pts (xy 133.35 86.995) (xy 133.35 101.6))
    (stroke (width 0) (type default) (color 0 0 0 0))
    (uuid 05ef9514-e4b9-4d6b-8326-bf8416a3b9d9)
  )

  (wire (pts (xy 171.45 82.55) (xy 157.48 82.55))
    (stroke (width 0) (type default) (color 0 0 0 0))
    (uuid 116247c7-d917-40b7-827d-25e0edc98ee9)
  )
  (polyline (pts (xy 133.35 63.5) (xy 158.75 63.5))
    (stroke (width 0) (type default) (color 0 0 0 0))
    (uuid 14a28a79-cc23-49fe-8e19-1d106a6009a4)
  )
  (polyline (pts (xy 76.2 107.95) (xy 76.2 82.55))
    (stroke (width 0) (type default) (color 0 0 0 0))
    (uuid 1ace2afa-008a-475c-b586-a2fa857b379e)
  )

  (wire (pts (xy 151.13 95.25) (xy 171.45 95.25))
    (stroke (width 0) (type default) (color 0 0 0 0))
    (uuid 1fd068fe-93de-4495-9341-45c73f06b96c)
  )
  (wire (pts (xy 120.65 82.55) (xy 120.65 92.71))
    (stroke (width 0) (type default) (color 0 0 0 0))
    (uuid 2f529f26-14b4-4c1c-b5fa-d9887fe7fbc9)
  )
  (wire (pts (xy 107.95 97.79) (xy 127 97.79))
    (stroke (width 0) (type default) (color 0 0 0 0))
    (uuid 30bbb9d6-605e-4200-8ccb-d7b5ec008bc2)
  )
  (polyline (pts (xy 114.3 107.95) (xy 76.2 107.95))
    (stroke (width 0) (type default) (color 0 0 0 0))
    (uuid 3753073e-c215-4e57-8d9a-03a15c4dfbf1)
  )

  (wire (pts (xy 127 101.6) (xy 127 97.79))
    (stroke (width 0) (type default) (color 0 0 0 0))
    (uuid 3f60c039-330f-4f69-9cc9-3e4bb05f77b6)
  )
  (wire (pts (xy 190.5 92.71) (xy 190.5 95.25))
    (stroke (width 0) (type default) (color 0 0 0 0))
    (uuid 3f7c743e-bc52-4f7d-91ce-ef20089ee115)
  )
  (wire (pts (xy 190.5 95.25) (xy 171.45 95.25))
    (stroke (width 0) (type default) (color 0 0 0 0))
    (uuid 4124e5a6-7971-49be-97d7-7487476ad579)
  )
  (wire (pts (xy 171.45 85.09) (xy 171.45 82.55))
    (stroke (width 0) (type default) (color 0 0 0 0))
    (uuid 4cd01dfd-244e-4fc7-b164-ea49d71741c8)
  )
  (polyline (pts (xy 158.75 101.6) (xy 133.35 101.6))
    (stroke (width 0) (type default) (color 0 0 0 0))
    (uuid 59b91578-41f9-44a3-ab08-3def73cf470c)
  )
  (polyline (pts (xy 133.35 86.995) (xy 158.75 86.995))
    (stroke (width 0) (type default) (color 0 0 0 0))
    (uuid 7018a9c7-654e-4935-baed-48d86c13ccb4)
  )
  (polyline (pts (xy 133.35 63.5) (xy 133.35 85.09))
    (stroke (width 0) (type default) (color 0 0 0 0))
    (uuid 70f774d7-ec87-4e47-b4b4-476f4f2bd34a)
  )
  (polyline (pts (xy 180.975 127) (xy 165.1 127))
    (stroke (width 0) (type default) (color 0 0 0 0))
    (uuid 72d414bf-494a-483c-bf02-ad2102a8234d)
  )
  (polyline (pts (xy 76.2 82.55) (xy 114.3 82.55))
    (stroke (width 0) (type default) (color 0 0 0 0))
    (uuid 75c09c52-ae0a-4c85-a932-0d699eed919c)
  )
  (polyline (pts (xy 222.25 101.6) (xy 222.25 76.2))
    (stroke (width 0) (type default) (color 0 0 0 0))
    (uuid 763c622e-21a8-4a07-bdc1-8044d513f656)
  )
  (polyline (pts (xy 180.975 76.2) (xy 180.975 127))
    (stroke (width 0) (type default) (color 0 0 0 0))
    (uuid 79b530ea-6a0e-4b43-a730-0948d6487c48)
  )
  (polyline (pts (xy 158.75 86.995) (xy 158.75 101.6))
    (stroke (width 0) (type default) (color 0 0 0 0))
    (uuid 80c4ee8a-9fbe-432b-be6c-6c4939befb51)
  )
  (polyline (pts (xy 165.1 76.2) (xy 165.1 127))
    (stroke (width 0) (type default) (color 0 0 0 0))
    (uuid 93e728ca-bb02-441e-a641-0dba5100c268)
  )

  (wire (pts (xy 171.45 95.25) (xy 171.45 92.71))
    (stroke (width 0) (type default) (color 0 0 0 0))
    (uuid a030eafc-f332-47c1-b40d-01a597c2360d)
  )
  (wire (pts (xy 171.45 105.41) (xy 171.45 114.3))
    (stroke (width 0) (type default) (color 0 0 0 0))
    (uuid a0b4612d-9ec2-48c3-bdbd-1b99de0d174f)
  )
  (wire (pts (xy 171.45 82.55) (xy 190.5 82.55))
    (stroke (width 0) (type default) (color 0 0 0 0))
    (uuid a487e78c-d9c1-4ee9-9e6e-fcc92ae63e16)
  )
  (wire (pts (xy 107.95 95.25) (xy 140.97 95.25))
    (stroke (width 0) (type default) (color 0 0 0 0))
    (uuid a50b2dba-7613-4d00-a695-ffb64479b7b2)
  )
  (polyline (pts (xy 133.35 85.09) (xy 158.75 85.09))
    (stroke (width 0) (type default) (color 0 0 0 0))
    (uuid a89d41f9-5238-48bd-bd16-8203ab142274)
  )
  (polyline (pts (xy 114.3 82.55) (xy 114.3 107.95))
    (stroke (width 0) (type default) (color 0 0 0 0))
    (uuid b42db4ee-92de-4591-bce2-4ee2990c6c60)
  )

  (wire (pts (xy 107.95 92.71) (xy 120.65 92.71))
    (stroke (width 0) (type default) (color 0 0 0 0))
    (uuid b820bffd-aca9-4225-8690-a5c1e1130b96)
  )
  (wire (pts (xy 120.65 82.55) (xy 134.62 82.55))
    (stroke (width 0) (type default) (color 0 0 0 0))
    (uuid c86d5bb0-c1f8-4a55-9d9a-fc7e8bb21946)
  )
  (wire (pts (xy 190.5 82.55) (xy 190.5 85.09))
    (stroke (width 0) (type default) (color 0 0 0 0))
    (uuid d2ba0aa2-f9c2-4f69-94bd-e208e8c4ab67)
  )
  (polyline (pts (xy 184.15 76.2) (xy 184.15 101.6))
    (stroke (width 0) (type default) (color 0 0 0 0))
    (uuid d7341a7c-138e-4958-94b9-6d075160a22d)
  )

  (wire (pts (xy 171.45 95.25) (xy 171.45 97.79))
    (stroke (width 0) (type default) (color 0 0 0 0))
    (uuid dbcbe080-5b56-443e-814e-8788d927d765)
  )
  (polyline (pts (xy 184.15 76.2) (xy 222.25 76.2))
    (stroke (width 0) (type default) (color 0 0 0 0))
    (uuid ee452002-5dfa-4e0a-bb4c-4b3269b66114)
  )
  (polyline (pts (xy 158.75 85.09) (xy 158.75 63.5))
    (stroke (width 0) (type default) (color 0 0 0 0))
    (uuid f2849b40-9d56-4a9a-adc4-7b4aa7add5aa)
  )
  (polyline (pts (xy 165.1 76.2) (xy 180.975 76.2))
    (stroke (width 0) (type default) (color 0 0 0 0))
    (uuid f8cb31d3-fb8b-48a8-91f4-7fafda57895b)
  )

  (text "Only ROW+COL needed by default\nGND required to use low-pass filter"
    (at 76.2 81.28 0)
    (effects (font (size 1.27 1.27)) (justify left bottom))
    (uuid 03deac48-244e-4333-af84-5f37d4ce3938)
  )
  (text "Jumper to bypass R1\nwhen it's not populated\nCut to use filter"
    (at 184.15 74.93 0)
    (effects (font (size 1.27 1.27)) (justify left bottom))
    (uuid 73777b81-c6be-49a1-98c4-669917b4dabc)
  )
  (text "Optional RC low-pass filter\nRequires JP1 to be cut, and GND connected"
    (at 182.245 126.365 0)
    (effects (font (size 1.27 1.27)) (justify left bottom))
    (uuid 8a131974-16a3-4feb-883b-e13670329eb6)
  )
  (text "Mechanical notes\n15mm long, 13mm wide, 6x8mm component space on bottom\nSilicone contacts 8mm from one end"
    (at 33.655 149.225 0)
    (effects (font (size 1.27 1.27)) (justify left bottom))
    (uuid 8c21236c-b177-4669-8716-36f516ca4a7d)
  )
  (text "Diode prevents ghosting\nwhen wired in matrix" (at 133.35 106.68 0)
    (effects (font (size 1.27 1.27)) (justify left bottom))
    (uuid d93c553d-8f22-4f88-994c-ee903a9ec103)
  )
  (text "Conductive silicone closes\nthese contacts" (at 133.35 62.865 0)
    (effects (font (size 1.27 1.27)) (justify left bottom))
    (uuid ef70a7a3-9512-44eb-b01c-fa7fa6718db6)
  )

  (label "NET_A" (at 173.355 95.25 0)
    (effects (font (size 1.27 1.27)) (justify left bottom))
    (uuid 03591f46-9337-491f-b67b-ff0c08162207)
  )
  (label "COL_IN" (at 121.92 95.25 0)
    (effects (font (size 1.27 1.27)) (justify left bottom))
    (uuid 23a53c30-f6b9-4f59-9bd7-26b108bd3530)
  )
  (label "ROW_OUT" (at 121.92 82.55 0)
    (effects (font (size 1.27 1.27)) (justify left bottom))
    (uuid 78c45847-990c-4a67-8661-001332254b1a)
  )
  (label "NET_B" (at 173.355 82.55 0)
    (effects (font (size 1.27 1.27)) (justify left bottom))
    (uuid ca44664a-e84a-4d37-877d-27475a6bbd92)
  )

  (symbol (lib_id "pspice:DIODE") (at 146.05 95.25 0) (unit 1)
    (in_bom yes) (on_board yes) (fields_autoplaced)
    (uuid 39367e70-4fd8-4578-b7c9-16f6f15e83e4)
    (property "Reference" "D1" (id 0) (at 146.05 89.1372 0))
    (property "Value" "DIODE" (id 1) (at 146.05 91.6741 0))
    (property "Footprint" "Diode_SMD:D_SOD-123" (id 2) (at 146.05 95.25 0)
      (effects (font (size 1.27 1.27)) hide)
    )
    (property "Datasheet" "~" (id 3) (at 146.05 95.25 0)
      (effects (font (size 1.27 1.27)) hide)
    )
    (pin "1" (uuid 4eeb2bf2-5aa0-4534-94bd-c0dab739d13b))
    (pin "2" (uuid 11896c2c-8771-4362-a4aa-2f8901fb1bc7))
  )

  (symbol (lib_id "Device:R") (at 171.45 88.9 180) (unit 1)
    (in_bom yes) (on_board yes) (fields_autoplaced)
    (uuid 70fda6a5-21af-4c76-98a7-28a68f802f4b)
    (property "Reference" "R1" (id 0) (at 173.228 88.0653 0)
      (effects (font (size 1.27 1.27)) (justify right))
    )
    (property "Value" "10K" (id 1) (at 173.228 90.6022 0)
      (effects (font (size 1.27 1.27)) (justify right))
    )
    (property "Footprint" "Resistor_SMD:R_0805_2012Metric" (id 2) (at 173.228 88.9 90)
      (effects (font (size 1.27 1.27)) hide)
    )
    (property "Datasheet" "~" (id 3) (at 171.45 88.9 0)
      (effects (font (size 1.27 1.27)) hide)
    )
    (pin "1" (uuid c6edd401-da24-460e-abea-2e5dcbdbd844))
    (pin "2" (uuid 5d02a0e8-5a6f-46e4-ade7-79297de98118))
  )

  (symbol (lib_id "Device:C") (at 171.45 101.6 0) (unit 1)
    (in_bom yes) (on_board yes) (fields_autoplaced)
    (uuid 94120874-5f65-4462-b99e-ba4f455fdb9c)
    (property "Reference" "C1" (id 0) (at 174.371 100.7653 0)
      (effects (font (size 1.27 1.27)) (justify left))
    )
    (property "Value" "0.1uF" (id 1) (at 174.371 103.3022 0)
      (effects (font (size 1.27 1.27)) (justify left))
    )
    (property "Footprint" "Capacitor_SMD:C_0805_2012Metric" (id 2) (at 172.4152 105.41 0)
      (effects (font (size 1.27 1.27)) hide)
    )
    (property "Datasheet" "~" (id 3) (at 171.45 101.6 0)
      (effects (font (size 1.27 1.27)) hide)
    )
    (pin "1" (uuid 69bcd340-55cb-4c46-a375-2a514eb0db47))
    (pin "2" (uuid e7f76791-1109-4ea1-8a04-d465a32ed0aa))
  )

  (symbol (lib_id "electro-sax-button-components:Matrix_Connector") (at 102.87 95.25 0) (mirror x) (unit 1)
    (in_bom yes) (on_board yes) (fields_autoplaced)
    (uuid aeb62c25-5933-436f-9556-92ff61c6f96f)
    (property "Reference" "J1" (id 0) (at 95.8089 94.4153 0)
      (effects (font (size 1.27 1.27)) (justify right))
    )
    (property "Value" "Matrix_Connector" (id 1) (at 95.8089 96.9522 0)
      (effects (font (size 1.27 1.27)) (justify right))
    )
    (property "Footprint" "electro-sax-button-components:Button_Header" (id 2) (at 102.87 95.25 0)
      (effects (font (size 1.27 1.27)) hide)
    )
    (property "Datasheet" "" (id 3) (at 102.87 95.25 0)
      (effects (font (size 1.27 1.27)) hide)
    )
    (pin "1" (uuid cb59ce31-1c5e-4dbc-b5ae-762c5ee500c3))
    (pin "2" (uuid 52d8fe88-fbf9-4a37-9e3b-924471e03a0f))
    (pin "3" (uuid 0bfaa013-c5fc-4356-ad40-c80414bb0177))
  )

  (symbol (lib_id "Jumper:SolderJumper_2_Bridged") (at 190.5 88.9 90) (unit 1)
    (in_bom yes) (on_board yes) (fields_autoplaced)
    (uuid ce5212a2-d621-4a3a-96b4-9324b49611a2)
    (property "Reference" "JP1" (id 0) (at 192.151 88.0653 90)
      (effects (font (size 1.27 1.27)) (justify right))
    )
    (property "Value" "SolderJumper_2_Bridged" (id 1) (at 192.151 90.6022 90)
      (effects (font (size 1.27 1.27)) (justify right))
    )
    (property "Footprint" "Jumper:SolderJumper-2_P1.3mm_Bridged_RoundedPad1.0x1.5mm" (id 2) (at 190.5 88.9 0)
      (effects (font (size 1.27 1.27)) hide)
    )
    (property "Datasheet" "~" (id 3) (at 190.5 88.9 0)
      (effects (font (size 1.27 1.27)) hide)
    )
    (pin "1" (uuid d17274a7-300d-426c-9319-072ab6e90c04))
    (pin "2" (uuid 9107d9d7-e930-4ce9-9ab9-1b5f6c0bb6ee))
  )

  (symbol (lib_id "power:GND") (at 127 101.6 0) (unit 1)
    (in_bom yes) (on_board yes) (fields_autoplaced)
    (uuid d28c4bf0-6993-4cdd-a177-0fa202d928bb)
    (property "Reference" "#PWR0102" (id 0) (at 127 107.95 0)
      (effects (font (size 1.27 1.27)) hide)
    )
    (property "Value" "GND" (id 1) (at 127 106.0434 0))
    (property "Footprint" "" (id 2) (at 127 101.6 0)
      (effects (font (size 1.27 1.27)) hide)
    )
    (property "Datasheet" "" (id 3) (at 127 101.6 0)
      (effects (font (size 1.27 1.27)) hide)
    )
    (pin "1" (uuid 29f2551b-d2a8-4adc-810a-a79fa6888b72))
  )

  (symbol (lib_id "power:GND") (at 171.45 114.3 0) (unit 1)
    (in_bom yes) (on_board yes) (fields_autoplaced)
    (uuid d65412e1-8e28-4c6f-8be6-8e911da36b35)
    (property "Reference" "#PWR0101" (id 0) (at 171.45 120.65 0)
      (effects (font (size 1.27 1.27)) hide)
    )
    (property "Value" "GND" (id 1) (at 171.45 118.7434 0))
    (property "Footprint" "" (id 2) (at 171.45 114.3 0)
      (effects (font (size 1.27 1.27)) hide)
    )
    (property "Datasheet" "" (id 3) (at 171.45 114.3 0)
      (effects (font (size 1.27 1.27)) hide)
    )
    (pin "1" (uuid 2bf23b1e-e052-42b2-b77b-ddcb1239f97c))
  )

  (symbol (lib_id "electro-sax-button-components:Membrane_Switch") (at 146.05 78.74 0) (unit 1)
    (in_bom yes) (on_board yes) (fields_autoplaced)
    (uuid f51cb6f2-cf82-4b6e-975d-ba88c1d484bd)
    (property "Reference" "S1" (id 0) (at 146.05 70.011 0))
    (property "Value" "Membrane_Switch" (id 1) (at 146.05 72.5479 0))
    (property "Footprint" "electro-sax-button-components:Membrane_Switch" (id 2) (at 146.05 78.74 0)
      (effects (font (size 1.27 1.27)) hide)
    )
    (property "Datasheet" "" (id 3) (at 146.05 78.74 0)
      (effects (font (size 1.27 1.27)) hide)
    )
    (pin "1" (uuid 713d6cf4-1f7a-4caf-ad88-b899c0e16438))
    (pin "2" (uuid 2828bb95-2c57-4ce6-be05-bac48793fd6e))
  )

  (sheet_instances
    (path "/" (page "1"))
  )

  (symbol_instances
    (path "/d65412e1-8e28-4c6f-8be6-8e911da36b35"
      (reference "#PWR0101") (unit 1) (value "GND") (footprint "")
    )
    (path "/d28c4bf0-6993-4cdd-a177-0fa202d928bb"
      (reference "#PWR0102") (unit 1) (value "GND") (footprint "")
    )
    (path "/94120874-5f65-4462-b99e-ba4f455fdb9c"
      (reference "C1") (unit 1) (value "0.1uF") (footprint "Capacitor_SMD:C_0805_2012Metric")
    )
    (path "/39367e70-4fd8-4578-b7c9-16f6f15e83e4"
      (reference "D1") (unit 1) (value "DIODE") (footprint "Diode_SMD:D_SOD-123")
    )
    (path "/aeb62c25-5933-436f-9556-92ff61c6f96f"
      (reference "J1") (unit 1) (value "Matrix_Connector") (footprint "electro-sax-button-components:Button_Header")
    )
    (path "/ce5212a2-d621-4a3a-96b4-9324b49611a2"
      (reference "JP1") (unit 1) (value "SolderJumper_2_Bridged") (footprint "Jumper:SolderJumper-2_P1.3mm_Bridged_RoundedPad1.0x1.5mm")
    )
    (path "/70fda6a5-21af-4c76-98a7-28a68f802f4b"
      (reference "R1") (unit 1) (value "10K") (footprint "Resistor_SMD:R_0805_2012Metric")
    )
    (path "/f51cb6f2-cf82-4b6e-975d-ba88c1d484bd"
      (reference "S1") (unit 1) (value "Membrane_Switch") (footprint "electro-sax-button-components:Membrane_Switch")
    )
  )
)
