(footprint "Membrane_Switch" (version 20211014) (generator pcbnew)
  (layer "F.Cu")
  (tedit 6235B6C7)
  (attr smd)
  (fp_text reference "REF**" (at 0 -3.5 unlocked) (layer "F.SilkS")
    (effects (font (size 1 1) (thickness 0.15)))
    (tstamp 6a6ef237-8a6d-46bb-a501-d12a303b59cb)
  )
  (fp_text value "Membrane_Switch" (at 0 3.5 unlocked) (layer "F.Fab")
    (effects (font (size 1 1) (thickness 0.15)))
    (tstamp 7c16f66e-19e7-4fbd-9d7d-6b85a39260fe)
  )
  (fp_rect (start -6.5 -1.8) (end 6.5 1.8) (layer "F.Mask") (width 0.12) (fill solid) (tstamp eac7e477-1095-4864-a3f8-8ea25db038f4))
  (fp_rect (start -6.5 -1.8) (end 6.5 1.8) (layer "Dwgs.User") (width 0.12) (fill none) (tstamp ea2f8ae4-96d1-43bf-a70f-a559c614801a))
  (pad "1" smd roundrect (at 2.625 -0.25) (size 0.5 4) (layers "F.Cu") (roundrect_rratio 0.5) (tstamp 033061bd-e103-47f3-8547-d20cc88b2b38))
  (pad "1" smd roundrect (at -3.375 -0.25) (size 0.5 4) (layers "F.Cu") (roundrect_rratio 0.5) (tstamp 0a7d4558-292d-422e-8460-cbaf1500b002))
  (pad "1" smd roundrect (at 5.625 -0.25) (size 0.5 4) (layers "F.Cu") (roundrect_rratio 0.5) (tstamp 1f78f45c-97f3-41cc-87af-7fa90560a297))
  (pad "1" smd roundrect (at -0.375 -0.25) (size 0.5 4) (layers "F.Cu") (roundrect_rratio 0.5) (tstamp 4f19f98d-8483-431c-9b1e-5fc333382d39))
  (pad "1" smd roundrect (at -1.875 -0.25) (size 0.5 4) (layers "F.Cu") (roundrect_rratio 0.5) (tstamp 548b9da1-b442-4e7a-b483-034f69188acf))
  (pad "1" smd roundrect (at -4.875 -0.25) (size 0.5 4) (layers "F.Cu") (roundrect_rratio 0.5) (tstamp 760e3b51-6ace-4787-b491-8caa4ca0a8df))
  (pad "1" smd roundrect (at 0 -2.25) (size 11.75 0.5) (layers "F.Cu") (roundrect_rratio 0.1) (tstamp 7a30f668-fb0a-471f-a3d4-817e8186ee3c))
  (pad "1" smd roundrect (at 4.125 -0.25) (size 0.5 4) (layers "F.Cu") (roundrect_rratio 0.5) (tstamp d1697ecf-28ec-450b-815a-ccb5efdfda33))
  (pad "1" smd roundrect (at 1.125 -0.25) (size 0.5 4) (layers "F.Cu") (roundrect_rratio 0.5) (tstamp d61866ce-1be8-48bb-9cc6-2fac33f83a0b))
  (pad "2" smd roundrect (at -1.125 0.25) (size 0.5 4) (layers "F.Cu") (roundrect_rratio 0.5) (tstamp 0995e793-5d2d-4f33-be34-36d273a82bc0))
  (pad "2" smd roundrect (at 0.375 0.25) (size 0.5 4) (layers "F.Cu") (roundrect_rratio 0.5) (tstamp 17ae0fcd-d319-4252-8249-58a655c8cf50))
  (pad "2" smd roundrect (at -5.625 0.25) (size 0.5 4) (layers "F.Cu") (roundrect_rratio 0.5) (tstamp 5a3e43d9-1ec8-4e38-8d53-40f4b3be8542))
  (pad "2" smd roundrect (at 0 2.25) (size 11.75 0.5) (layers "F.Cu") (roundrect_rratio 0.1) (tstamp 6b0ac7c7-2ef4-4390-a9e1-fcd514851083))
  (pad "2" smd roundrect (at 3.375 0.25) (size 0.5 4) (layers "F.Cu") (roundrect_rratio 0.5) (tstamp 9d7c99c5-dd8c-48f1-a077-ca4c26981a3e))
  (pad "2" smd roundrect (at -4.125 0.25) (size 0.5 4) (layers "F.Cu") (roundrect_rratio 0.5) (tstamp b11382f8-87bd-4b72-9fe0-2e107e39bb2c))
  (pad "2" smd roundrect (at 1.875 0.25) (size 0.5 4) (layers "F.Cu") (roundrect_rratio 0.5) (tstamp c3330df9-31fa-4633-9cea-abff305d4328))
  (pad "2" smd roundrect (at -2.625 0.25) (size 0.5 4) (layers "F.Cu") (roundrect_rratio 0.5) (tstamp e124707c-0dad-426d-b0db-8b2a8918fa6c))
  (pad "2" smd roundrect (at 4.875 0.25) (size 0.5 4) (layers "F.Cu") (roundrect_rratio 0.5) (tstamp f9cc8aab-bfca-4d68-850e-b81fba1853a5))
)
